%YAML 1.1
%TAG !u! tag:unity3d.com,2011:
--- !u!1045 &1
EditorBuildSettings:
  m_ObjectHideFlags: 0
  serializedVersion: 2
  m_Scenes:
  - enabled: 0
    path: 
    guid: 00000000000000000000000000000000
  - enabled: 1
    path: Assets/Scenes/MapMaker.unity
    guid: 96212854d4f5a4a4ba6e5d1a41b39124
  - enabled: 1
    path: Assets/Scenes/Old/testSceneOne.unity
    guid: 72377c70f5f3b5d45b2bd44a58594514
  - enabled: 1
    path: Assets/Scenes/AnimationMaker.unity
    guid: 15789a3c4d6d4c5468a059836c71351b
  - enabled: 1
    path: Assets/Scenes/Old/animationtest.unity
    guid: a1a1ce5465ccd82468804d61ccdeb5c8
  m_configObjects: {}
