%YAML 1.1
%TAG !u! tag:unity3d.com,2011:
--- !u!78 &1
TagManager:
  serializedVersion: 2
  tags:
  - roof
  - nontagged
  - boarders
  - water
  - dirt
  - ControlObject
  layers:
  - Default
  - TransparentFX
  - Ignore Raycast
  - 
  - Water
  - UI
  - 
  - 
  - interactable
  - block
  - 
  - 
  - 
  - 
  - 
  - 
  - 
  - 
  - 
  - 
  - 
  - 
  - 
  - 
  - 
  - 
  - 
  - 
  - 
  - 
  - 
  - 
  m_SortingLayers:
  - name: Ground
    uniqueID: 2040109655
    locked: 0
  - name: boardersSides
    uniqueID: 3461586481
    locked: 0
  - name: boardersCorners
    uniqueID: 895048771
    locked: 0
  - name: Under
    uniqueID: 3164506341
    locked: 0
  - name: Default
    uniqueID: 0
    locked: 0
  - name: Foreground
    uniqueID: 4010678829
    locked: 0
  - name: Caps
    uniqueID: 463535859
    locked: 0
  - name: Roof
    uniqueID: 3754781315
    locked: 0
  - name: CopyGround
    uniqueID: 1492470673
    locked: 0
  - name: CopyboardersSides
    uniqueID: 2610961343
    locked: 0
  - name: CopyboardersCorners
    uniqueID: 2502666169
    locked: 0
  - name: CopyUnder
    uniqueID: 1317592277
    locked: 0
  - name: CopyDefault
    uniqueID: 4061790893
    locked: 0
  - name: CopyForeground
    uniqueID: 1665648275
    locked: 0
  - name: CopyCaps
    uniqueID: 1878539463
    locked: 0
  - name: CopyRoof
    uniqueID: 4160261193
    locked: 0
  - name: AlwaysAbove
    uniqueID: 2152700213
    locked: 0
